{
  "LECTURE_COMPREHENSION_COURT": "Lire et comprendre des textes courts (processus d'intégration)",
  "PRE_REQUIS": "Pre_requis",
  "DECOUVERTE": "Decouverte",
  "SOUTIEN": "Soutien",
  "PERFECTIONNEMENT": "Perfectionnement",
  "REVISION": "Revision"
}